<svg width="16" height="16" viewBox="0 0 16 16" fill="none" xmlns="http://www.w3.org/2000/svg">
<path d="M7.33804 1.71888L7.33337 12.0107C7.33337 12.1875 7.40361 12.3571 7.52863 12.4821C7.65366 12.6071 7.82323 12.6774 8.00004 12.6774C8.17685 12.6774 8.34642 12.6071 8.47144 12.4821C8.59646 12.3571 8.6667 12.1875 8.6667 12.0107L8.67137 1.73021L10.6127 3.67218C10.7377 3.79716 10.9073 3.86737 11.084 3.86737C11.2608 3.86737 11.4304 3.79716 11.5554 3.67218C11.6803 3.54716 11.7506 3.37763 11.7506 3.20085C11.7506 3.02408 11.6803 2.85454 11.5554 2.72953L9.4147 0.58623C9.22897 0.40038 9.00843 0.252949 8.7657 0.152361C8.52296 0.0517732 8.26279 0 8.00004 0C7.73728 0 7.47711 0.0517732 7.23437 0.152361C6.99164 0.252949 6.7711 0.40038 6.58537 0.58623L4.4447 2.72753C4.31972 2.85254 4.24951 3.02208 4.24951 3.19885C4.24951 3.37563 4.31972 3.54516 4.4447 3.67018C4.56972 3.79516 4.73926 3.86537 4.91604 3.86537C5.09281 3.86537 5.26235 3.79516 5.38737 3.67018L7.33804 1.71888Z" fill="white"/>
<path d="M14.6667 11.3327V13.9993C14.6667 14.1761 14.5964 14.3457 14.4714 14.4707C14.3464 14.5957 14.1768 14.6659 14 14.6659H2C1.82319 14.6659 1.65362 14.5957 1.5286 14.4707C1.40357 14.3457 1.33333 14.1761 1.33333 13.9993V11.3327C1.33333 11.1559 1.2631 10.9863 1.13807 10.8613C1.01305 10.7363 0.843478 10.666 0.666667 10.666C0.489856 10.666 0.320286 10.7363 0.195262 10.8613C0.0702379 10.9863 0 11.1559 0 11.3327L0 13.9993C0 14.5297 0.210714 15.0384 0.585786 15.4135C0.960859 15.7886 1.46957 15.9993 2 15.9993H14C14.5304 15.9993 15.0391 15.7886 15.4142 15.4135C15.7893 15.0384 16 14.5297 16 13.9993V11.3327C16 11.1559 15.9298 10.9863 15.8047 10.8613C15.6797 10.7363 15.5101 10.666 15.3333 10.666C15.1565 10.666 14.987 10.7363 14.8619 10.8613C14.7369 10.9863 14.6667 11.1559 14.6667 11.3327Z" fill="white"/>
</svg>
