<svg width="18" height="18" viewBox="0 0 18 18" fill="none" xmlns="http://www.w3.org/2000/svg">
<path d="M17.1094 4.46251L17.1095 4.46276C17.2169 4.70665 17.1057 4.99248 16.8613 5.09984L17.1094 4.46251ZM17.1094 4.46251C17.001 4.21778 16.7169 4.10929 16.4735 4.21413L16.4724 4.21461L14.4726 5.0952L17.1094 4.46251ZM1.52798 4.21461L1.52798 4.21461L3.5278 5.0952L1.52798 4.21461ZM1.52798 4.21461L1.52682 4.21411M1.52798 4.21461L1.52682 4.21411M1.52682 4.21411C1.28563 4.11033 0.999594 4.21631 0.890947 4.46271L0.890924 4.46276M1.52682 4.21411L0.890924 4.46276M0.890924 4.46276C0.783496 4.70665 0.89466 4.99248 1.13908 5.09984L0.890924 4.46276ZM3.13908 5.98051L3.13908 5.98051L1.13926 5.09992L3.13908 5.98051ZM3.13908 5.98051L3.14019 5.98099M3.13908 5.98051L3.14019 5.98099M3.14019 5.98099C3.20205 6.00764 3.26822 6.02123 3.33353 6.02123C3.51891 6.02123 3.69594 5.914 3.77609 5.73247L3.77614 5.73236M3.14019 5.98099L3.77614 5.73236M3.77614 5.73236C3.88356 5.48847 3.7724 5.20263 3.52798 5.09528L3.77614 5.73236ZM12.4313 3.75633L12.4324 3.75691C12.5053 3.79668 12.5853 3.81723 12.6662 3.81723C12.8351 3.81723 13.0005 3.72764 13.0887 3.5687C13.0887 3.56869 13.0887 3.56868 13.0887 3.56867L14.2025 1.56897C14.3329 1.33526 14.2489 1.04118 14.0159 0.911521C13.7835 0.781555 13.4876 0.863868 13.3583 1.09855C13.3582 1.09869 13.3582 1.09884 13.3581 1.09898L12.2445 3.09815C12.1142 3.33176 12.198 3.62662 12.4313 3.75633ZM14.8613 5.98051L16.8611 5.09992L14.4724 5.09528C14.228 5.20263 14.1168 5.48847 14.2243 5.73236L14.2243 5.73247C14.3044 5.914 14.4815 6.02123 14.6669 6.02123C14.7322 6.02123 14.7983 6.00764 14.8602 5.98099L14.8613 5.98051ZM3.79787 1.56897L4.91124 3.56785L5.75519 3.09815L4.64209 1.09856L4.51086 1.17123L4.64193 1.09827L4.64199 1.09839C4.51192 0.863701 4.21681 0.782368 3.98464 0.911461C3.75149 1.0411 3.66747 1.33522 3.79787 1.56897ZM5.81975 13.464L5.81997 13.4642C6.04897 13.6269 6.18353 13.886 6.18353 14.1546V14.9092C6.18353 16.1584 7.12248 17.1499 8.33353 17.1499H9.66686C10.8524 17.1499 11.8169 16.1854 11.8169 14.9999V14.1552C11.8169 13.8852 11.9501 13.6277 12.1752 13.4674C13.6206 12.44 14.4835 10.7698 14.4835 8.99923C14.4835 7.44117 13.8173 5.95258 12.657 4.91285L12.6569 4.91277C11.4795 3.85942 9.95701 3.37548 8.37699 3.55081C5.94538 3.81964 3.92831 5.76449 3.57643 8.1796L3.57642 8.17964C3.27707 10.2381 4.1363 12.2631 5.81975 13.464ZM4.5333 8.31883L4.53331 8.31878C4.82145 6.33468 6.4836 4.73219 8.48265 4.51165C8.65933 4.49224 8.83384 4.48256 9.00686 4.48256C10.1213 4.48256 11.1723 4.88161 12.0121 5.63297C12.9684 6.4892 13.5169 7.71656 13.5169 8.99923C13.5169 10.4572 12.8065 11.833 11.6147 12.6796L11.6146 12.6797C11.3164 12.8919 11.1017 13.1873 10.9774 13.5159H9.48353V10.4168C10.2515 10.2049 10.8169 9.50111 10.8169 8.66589C10.8169 8.39905 10.6004 8.18256 10.3335 8.18256C10.0667 8.18256 9.8502 8.39905 9.8502 8.66589C9.8502 9.13438 9.46869 9.51589 9.0002 9.51589C8.53171 9.51589 8.1502 9.13438 8.1502 8.66589C8.1502 8.39905 7.93371 8.18256 7.66686 8.18256C7.40002 8.18256 7.18353 8.39905 7.18353 8.66589C7.18353 9.50045 7.74889 10.2048 8.51686 10.4168V13.5159H7.02217C6.89696 13.1864 6.68033 12.8903 6.38067 12.6765L6.3806 12.6764C4.99418 11.6881 4.28598 10.0184 4.5333 8.31883ZM7.1502 14.4826H10.8502V14.9992C10.8502 15.6517 10.3194 16.1826 9.66686 16.1826H8.33353C7.66488 16.1826 7.1502 15.6472 7.1502 14.9086V14.4826Z" fill="white" stroke="white" stroke-width="0.3"/>
</svg>
